pandoc • pandoc
…
Various Wrapper functions around pandoc CLI

All other included functions to run pandoc are wrapping
pandoc_run() with some command flags from Pandoc MANUAL. Each of these
functions can take the version= argument to run with a
specific version of Pandoc instead of the current activated one.

Some of those functions can only be used with specific pandoc
versions and an error will be thrown if the version requirement is not
met.

List supported extensions for a format

pandoc_list_extensions()
#> # A tibble: 68 × 3
#>    format   extensions               default
#>    <chr>    <chr>                    <lgl>  
#>  1 markdown abbreviations            FALSE  
#>  2 markdown all_symbols_escapable    TRUE   
#>  3 markdown angle_brackets_escapable FALSE  
#>  4 markdown ascii_identifiers        FALSE  
#>  5 markdown auto_identifiers         TRUE   
#>  6 markdown autolink_bare_uris       FALSE  
#>  7 markdown backtick_code_blocks     TRUE   
#>  8 markdown blank_before_blockquote  TRUE   
#>  9 markdown blank_before_header      TRUE   
#> 10 markdown bracketed_spans          TRUE   
#> # ℹ 58 more rows
pandoc_list_extensions(format = "gfm")
#> # A tibble: 26 × 3
#>    format extensions             default
#>    <chr>  <chr>                  <lgl>  
#>  1 gfm    ascii_identifiers      FALSE  
#>  2 gfm    autolink_bare_uris     TRUE   
#>  3 gfm    bracketed_spans        FALSE  
#>  4 gfm    definition_lists       FALSE  
#>  5 gfm    east_asian_line_breaks FALSE  
#>  6 gfm    emoji                  TRUE   
#>  7 gfm    fancy_lists            FALSE  
#>  8 gfm    fenced_code_attributes FALSE  
#>  9 gfm    fenced_divs            FALSE  
#> 10 gfm    footnotes              FALSE  
#> # ℹ 16 more rows
…
List available input or output formats

pandoc_list_formats("input")
#> # A tibble: 38 × 2
#>    type  formats     
#>    <chr> <chr>       
#>  1 input biblatex    
#>  2 input bibtex      
#>  3 input commonmark  
#>  4 input commonmark_x
#>  5 input creole      
#>  6 input csljson     
#>  7 input csv         
#>  8 input docbook     
#>  9 input docx        
#> 10 input dokuwiki    
#> # ℹ 28 more rows
pandoc_list_formats("output")
#> # A tibble: 61 × 2
#>    type   formats     
#>    <chr>  <chr>       
#>  1 output asciidoc    
#>  2 output asciidoctor 
#>  3 output beamer      
#>  4 output biblatex    
#>  5 output bibtex      
#>  6 output commonmark  
#>  7 output commonmark_x
#>  8 output context     
#>  9 output csljson     
#> 10 output docbook     
#> # ℹ 51 more rows
pandoc_list_formats("output", version = "nightly")
#> # A tibble: 64 × 2
#>    type   formats     
#>    <chr>  <chr>       
#>  1 output asciidoc    
#>  2 output asciidoctor 
#>  3 output beamer      
#>  4 output biblatex    
#>  5 output bibtex      
#>  6 output chunkedhtml 
#>  7 output commonmark  
#>  8 output commonmark_x
#>  9 output context     
#> 10 output csljson     
#> # ℹ 54 more rows
…
