List supported extensions for a format — pandoc_list_extensions • pandoc
…
extensions : name of the extensions

default: Is the extensions activated by default or not ?

    Details

    All the extensions for the last Pandoc version released are available in
https://pandoc.org/MANUAL.html.

    Examples

pandoc_list_extensions("markdown")
#> # A tibble: 70 × 3
#>    format   extensions               default
#>    <chr>    <chr>                    <lgl>  
#>  1 markdown abbreviations            FALSE  
#>  2 markdown all_symbols_escapable    TRUE   
#>  3 markdown angle_brackets_escapable FALSE  
#>  4 markdown ascii_identifiers        FALSE  
#>  5 markdown auto_identifiers         TRUE   
#>  6 markdown autolink_bare_uris       FALSE  
#>  7 markdown backtick_code_blocks     TRUE   
#>  8 markdown blank_before_blockquote  TRUE   
#>  9 markdown blank_before_header      TRUE   
#> 10 markdown bracketed_spans          TRUE   
#> # ℹ 60 more rows
pandoc_list_extensions("gfm")
#> # A tibble: 26 × 3
#>    format extensions             default
#>    <chr>  <chr>                  <lgl>  
#>  1 gfm    ascii_identifiers      FALSE  
#>  2 gfm    attributes             FALSE  
#>  3 gfm    autolink_bare_uris     TRUE   
#>  4 gfm    bracketed_spans        FALSE  
#>  5 gfm    definition_lists       FALSE  
#>  6 gfm    east_asian_line_breaks FALSE  
#>  7 gfm    emoji                  TRUE   
#>  8 gfm    fancy_lists            FALSE  
#>  9 gfm    fenced_divs            FALSE  
#> 10 gfm    footnotes              TRUE   
#> # ℹ 16 more rows
…
