List available supported formats — pandoc_list_formats • pandoc
…
Pandoc binary found in PATH with "system"

    Value

    a data.frame (or a tibble if available) with 2 column:
type (input or output)

formats (name of the formats that can be used as input or output)

    Examples

# which input formats are available
pandoc_list_formats()
#> # A tibble: 44 × 2
#>    type  formats     
#>    <chr> <chr>       
#>  1 input biblatex    
#>  2 input bibtex      
#>  3 input bits        
#>  4 input commonmark  
#>  5 input commonmark_x
#>  6 input creole      
#>  7 input csljson     
#>  8 input csv         
#>  9 input docbook     
#> 10 input docx        
#> # ℹ 34 more rows
# which output formats are available
pandoc_list_formats()
#> # A tibble: 44 × 2
#>    type  formats     
#>    <chr> <chr>       
#>  1 input biblatex    
#>  2 input bibtex      
#>  3 input bits        
#>  4 input commonmark  
#>  5 input commonmark_x
#>  6 input creole      
#>  7 input csljson     
#>  8 input csv         
#>  9 input docbook     
#> 10 input docx        
#> # ℹ 34 more rows
# target a specific version
pandoc_list_formats("input", version = "system")
#> # A tibble: 44 × 2
#>    type  formats     
#>    <chr> <chr>       
#>  1 input biblatex    
#>  2 input bibtex      
#>  3 input bits        
#>  4 input commonmark  
#>  5 input commonmark_x
#>  6 input creole      
#>  7 input csljson     
#>  8 input csv         
#>  9 input docbook     
#> 10 input docx        
#> # ℹ 34 more rows
…
