pandoc • pandoc
…
Various Wrapper functions around pandoc CLI

All other included functions to run pandoc are wrapping pandoc_run() with some command flags form Pandoc MANUAL. Each of these function can take the version= argument to run with a specific version of Pandoc instead of the current activated one.

Some of those functions can only be used with specific pandoc versions and an error will be thrown if the version requirement is not met.

List supported extensions for a format

pandoc_list_extensions()
#> # A tibble: 80 x 3
#>    format   extensions               default
#>    <chr>    <chr>                    <lgl>  
#>  1 markdown abbreviations            FALSE  
#>  2 markdown all_symbols_escapable    TRUE   
#>  3 markdown amuse                    FALSE  
#>  4 markdown angle_brackets_escapable FALSE  
#>  5 markdown ascii_identifiers        FALSE  
#>  6 markdown auto_identifiers         TRUE   
#>  7 markdown autolink_bare_uris       FALSE  
#>  8 markdown backtick_code_blocks     TRUE   
#>  9 markdown blank_before_blockquote  TRUE   
#> 10 markdown blank_before_header      TRUE   
#> # ... with 70 more rows
pandoc_list_extensions(format = "gfm")
#> # A tibble: 80 x 3
#>    format extensions               default
#>    <chr>  <chr>                    <lgl>  
#>  1 gfm    abbreviations            FALSE  
#>  2 gfm    all_symbols_escapable    TRUE   
#>  3 gfm    amuse                    FALSE  
#>  4 gfm    angle_brackets_escapable FALSE  
#>  5 gfm    ascii_identifiers        FALSE  
#>  6 gfm    auto_identifiers         TRUE   
#>  7 gfm    autolink_bare_uris       FALSE  
#>  8 gfm    backtick_code_blocks     TRUE   
#>  9 gfm    blank_before_blockquote  TRUE   
#> 10 gfm    blank_before_header      TRUE   
#> # ... with 70 more rows
pandoc_list_extensions(format = "html", version = "nightly")
#> # A tibble: 82 x 3
#>    format extensions               default
#>    <chr>  <chr>                    <lgl>  
#>  1 html   abbreviations            FALSE  
#>  2 html   all_symbols_escapable    TRUE   
#>  3 html   amuse                    FALSE  
#>  4 html   angle_brackets_escapable FALSE  
#>  5 html   ascii_identifiers        FALSE  
#>  6 html   attributes               FALSE  
#>  7 html   auto_identifiers         TRUE   
#>  8 html   autolink_bare_uris       FALSE  
#>  9 html   backtick_code_blocks     TRUE   
#> 10 html   blank_before_blockquote  TRUE   
#> # ... with 72 more rows

List available input or output formats

pandoc_list_formats("input")
#> # A tibble: 38 x 2
#>    type  formats     
#>    <chr> <chr>       
#>  1 input biblatex    
#>  2 input bibtex      
#>  3 input commonmark  
#>  4 input commonmark_x
#>  5 input creole      
#>  6 input csljson     
#>  7 input csv         
#>  8 input docbook     
#>  9 input docx        
#> 10 input dokuwiki    
#> # ... with 28 more rows
pandoc_list_formats("output")
#> # A tibble: 61 x 2
#>    type   formats     
#>    <chr>  <chr>       
#>  1 output asciidoc    
#>  2 output asciidoctor 
#>  3 output beamer      
#>  4 output biblatex    
#>  5 output bibtex      
#>  6 output commonmark  
#>  7 output commonmark_x
#>  8 output context     
#>  9 output csljson     
#> 10 output docbook     
#> # ... with 51 more rows
pandoc_list_formats("output", version = "nightly")
#> # A tibble: 61 x 2
#>    type   formats     
#>    <chr>  <chr>       
#>  1 output asciidoc    
#>  2 output asciidoctor 
#>  3 output beamer      
#>  4 output biblatex    
#>  5 output bibtex      
#>  6 output commonmark  
#>  7 output commonmark_x
#>  8 output context     
#>  9 output csljson     
#> 10 output docbook     
#> # ... with 51 more rows
…
